Healthcare Study Case 1
…
#filter out unrelated patients and narrow the dataframe down to patients who received more than one medciations on their index date
tmp_index_2 <- analytic_file_final %>% filter(pat_id %in% tmp_index$pat_id)

#check which patients received both AC and AD medications on their index date
tmp3 <- tmp_index_2 %>% group_by(pat_id) %>% mutate(tmp = unique(IDX_group)[1], tmp2 = unique(IDX_group)[2])
tmp3 <-filter(tmp3, tmp != is.na(tmp) & tmp2 != is.na(tmp2))
tmp3

## Source: local data frame [70 x 7]
## Groups: pat_id [28]
## 
##              pat_id       rx_group                 gen_nm   IDX_Date
##               <chr>          <chr>                  <chr>     <date>
## 1  w112AAAAAAEVCAUN  ANTIDIABETICS INSULIN LISPRO (HUMAN) 2013-02-01
## 2  p615AAAAAADWMHYX  ANTIDIABETICS INSULIN LISPRO (HUMAN) 2013-02-28
## 3  a786AAAAAAGJRUQT  ANTIDIABETICS INSULIN LISPRO (HUMAN) 2013-01-01
## 4  s103AAAAAAEORAYZ  ANTIDIABETICS        SAXAGLIPTIN HCL 2013-03-15
## 5  s103AAAAAAEORAYZ  ANTIDIABETICS        SAXAGLIPTIN HCL 2013-03-15
## 6  f941AAAAAAETKDSH  ANTIDIABETICS  SITAGLIPTIN PHOSPHATE 2013-02-24
## 7  mg19AAAAAAFWRXCW  ANTIDIABETICS  SITAGLIPTIN PHOSPHATE 2013-01-03
## 8  s103AAAAAAJDCJBO  ANTIDIABETICS  SITAGLIPTIN PHOSPHATE 2013-01-14
## 9  mr01AAAAAACGUDMR ANTICOAGULANTS        WARFARIN SODIUM 2013-01-14
## 10 s107AAAAABFPLWJY  ANTIDIABETICS       INSULIN GLARGINE 2013-01-04
## # ... with 60 more rows, and 3 more variables: IDX_group <chr>, tmp <chr>,
## #   tmp2 <chr>
…
